mc16_13TeV.311378.MadGraphPy8EG_A14NNP23LO_monoSbb_zp500_dm200_dh50.deriv.DAOD_EXOT27.e7346_s3126_r9364_p4434
mc16_13TeV.311379.MadGraphPy8EG_A14NNP23LO_monoSbb_zp1000_dm200_dh50.deriv.DAOD_EXOT27.e7346_s3126_r9364_p4434
mc16_13TeV.311380.MadGraphPy8EG_A14NNP23LO_monoSbb_zp1500_dm200_dh50.deriv.DAOD_EXOT27.e7346_s3126_r9364_p4434
mc16_13TeV.311381.MadGraphPy8EG_A14NNP23LO_monoSbb_zp2000_dm200_dh50.deriv.DAOD_EXOT27.e7346_s3126_r9364_p4434
mc16_13TeV.311382.MadGraphPy8EG_A14NNP23LO_monoSbb_zp2500_dm200_dh50.deriv.DAOD_EXOT27.e7346_s3126_r9364_p4434
mc16_13TeV.311383.MadGraphPy8EG_A14NNP23LO_monoSbb_zp3000_dm200_dh50.deriv.DAOD_EXOT27.e7346_s3126_r9364_p4434
mc16_13TeV.311384.MadGraphPy8EG_A14NNP23LO_monoSbb_zp500_dm200_dh70.deriv.DAOD_EXOT27.e7346_s3126_r9364_p4434
mc16_13TeV.311385.MadGraphPy8EG_A14NNP23LO_monoSbb_zp1000_dm200_dh70.deriv.DAOD_EXOT27.e7346_s3126_r9364_p4434
mc16_13TeV.311386.MadGraphPy8EG_A14NNP23LO_monoSbb_zp1500_dm200_dh70.deriv.DAOD_EXOT27.e7346_s3126_r9364_p4434
mc16_13TeV.311387.MadGraphPy8EG_A14NNP23LO_monoSbb_zp2000_dm200_dh70.deriv.DAOD_EXOT27.e7346_s3126_r9364_p4434
mc16_13TeV.311388.MadGraphPy8EG_A14NNP23LO_monoSbb_zp2500_dm200_dh70.deriv.DAOD_EXOT27.e7346_s3126_r9364_p4434
mc16_13TeV.311389.MadGraphPy8EG_A14NNP23LO_monoSbb_zp3000_dm200_dh70.deriv.DAOD_EXOT27.e7346_s3126_r9364_p4434
mc16_13TeV.311390.MadGraphPy8EG_A14NNP23LO_monoSbb_zp500_dm200_dh90.deriv.DAOD_EXOT27.e7346_s3126_r9364_p4434
mc16_13TeV.311391.MadGraphPy8EG_A14NNP23LO_monoSbb_zp1000_dm200_dh90.deriv.DAOD_EXOT27.e7346_s3126_r9364_p4434
mc16_13TeV.311392.MadGraphPy8EG_A14NNP23LO_monoSbb_zp1500_dm200_dh90.deriv.DAOD_EXOT27.e7346_s3126_r9364_p4434
mc16_13TeV.311393.MadGraphPy8EG_A14NNP23LO_monoSbb_zp2000_dm200_dh90.deriv.DAOD_EXOT27.e7346_s3126_r9364_p4434
mc16_13TeV.311394.MadGraphPy8EG_A14NNP23LO_monoSbb_zp2500_dm200_dh90.deriv.DAOD_EXOT27.e7346_s3126_r9364_p4434
mc16_13TeV.311395.MadGraphPy8EG_A14NNP23LO_monoSbb_zp3000_dm200_dh90.deriv.DAOD_EXOT27.e7346_s3126_r9364_p4434
mc16_13TeV.311396.MadGraphPy8EG_A14NNP23LO_monoSbb_zp500_dm200_dh110.deriv.DAOD_EXOT27.e7346_s3126_r9364_p4434
mc16_13TeV.311397.MadGraphPy8EG_A14NNP23LO_monoSbb_zp1000_dm200_dh110.deriv.DAOD_EXOT27.e7346_s3126_r9364_p4434
mc16_13TeV.311398.MadGraphPy8EG_A14NNP23LO_monoSbb_zp1500_dm200_dh110.deriv.DAOD_EXOT27.e7346_s3126_r9364_p4434
mc16_13TeV.311399.MadGraphPy8EG_A14NNP23LO_monoSbb_zp2000_dm200_dh110.deriv.DAOD_EXOT27.e7346_s3126_r9364_p4434
mc16_13TeV.311400.MadGraphPy8EG_A14NNP23LO_monoSbb_zp2500_dm200_dh110.deriv.DAOD_EXOT27.e7346_s3126_r9364_p4434
mc16_13TeV.311401.MadGraphPy8EG_A14NNP23LO_monoSbb_zp3000_dm200_dh110.deriv.DAOD_EXOT27.e7346_s3126_r9364_p4434
mc16_13TeV.312356.MadGraphPy8EG_A14NNP23LO_monoSbb_zp3500_dm200_dh50.deriv.DAOD_EXOT27.e7605_s3126_r9364_p4434
mc16_13TeV.312357.MadGraphPy8EG_A14NNP23LO_monoSbb_zp3500_dm200_dh70.deriv.DAOD_EXOT27.e7605_s3126_r9364_p4434
mc16_13TeV.312358.MadGraphPy8EG_A14NNP23LO_monoSbb_zp3500_dm200_dh90.deriv.DAOD_EXOT27.e7605_s3126_r9364_p4434
mc16_13TeV.312359.MadGraphPy8EG_A14NNP23LO_monoSbb_zp3500_dm200_dh110.deriv.DAOD_EXOT27.e7605_s3126_r9364_p4434
mc16_13TeV.312360.MadGraphPy8EG_A14NNP23LO_monoSbb_zp500_dm200_dh130.deriv.DAOD_EXOT27.e7605_s3126_r9364_p4434
mc16_13TeV.312361.MadGraphPy8EG_A14NNP23LO_monoSbb_zp1000_dm200_dh130.deriv.DAOD_EXOT27.e7605_s3126_r9364_p4434
mc16_13TeV.312362.MadGraphPy8EG_A14NNP23LO_monoSbb_zp1500_dm200_dh130.deriv.DAOD_EXOT27.e7605_s3126_r9364_p4434
mc16_13TeV.312363.MadGraphPy8EG_A14NNP23LO_monoSbb_zp2000_dm200_dh130.deriv.DAOD_EXOT27.e7605_s3126_r9364_p4434
mc16_13TeV.312364.MadGraphPy8EG_A14NNP23LO_monoSbb_zp2500_dm200_dh130.deriv.DAOD_EXOT27.e7605_s3126_r9364_p4434
mc16_13TeV.312365.MadGraphPy8EG_A14NNP23LO_monoSbb_zp3000_dm200_dh130.deriv.DAOD_EXOT27.e7605_s3126_r9364_p4434
mc16_13TeV.312366.MadGraphPy8EG_A14NNP23LO_monoSbb_zp500_dm200_dh150.deriv.DAOD_EXOT27.e7605_s3126_r9364_p4434
mc16_13TeV.312367.MadGraphPy8EG_A14NNP23LO_monoSbb_zp1000_dm200_dh150.deriv.DAOD_EXOT27.e7605_s3126_r9364_p4434
mc16_13TeV.312368.MadGraphPy8EG_A14NNP23LO_monoSbb_zp1500_dm200_dh150.deriv.DAOD_EXOT27.e7605_s3126_r9364_p4434
mc16_13TeV.312369.MadGraphPy8EG_A14NNP23LO_monoSbb_zp2000_dm200_dh150.deriv.DAOD_EXOT27.e7605_s3126_r9364_p4434
mc16_13TeV.312370.MadGraphPy8EG_A14NNP23LO_monoSbb_zp2500_dm200_dh150.deriv.DAOD_EXOT27.e7605_s3126_r9364_p4434
mc16_13TeV.312371.MadGraphPy8EG_A14NNP23LO_monoSbb_zp3000_dm200_dh150.deriv.DAOD_EXOT27.e7605_s3126_r9364_p4434
mc16_13TeV.312372.MadGraphPy8EG_A14NNP23LO_monoSbb_zp3500_dm200_dh150.deriv.DAOD_EXOT27.e7605_s3126_r9364_p4434
mc16_13TeV.312373.MadGraphPy8EG_A14NNP23LO_monoSbb_zp3500_dm200_dh130.deriv.DAOD_EXOT27.e7605_s3126_r9364_p4434
